<?xml version='1.0' encoding='UTF-8'?>
<!-- Created with Inkscape (http://www.inkscape.org/) and export_objects.py -->
<svg xmlns:cc="http://creativecommons.org/ns#" xmlns:dc="http://purl.org/dc/elements/1.1/" xmlns:inkscape="http://www.inkscape.org/namespaces/inkscape" xmlns:rdf="http://www.w3.org/1999/02/22-rdf-syntax-ns#" xmlns:sodipodi="http://sodipodi.sourceforge.net/DTD/sodipodi-0.dtd" xmlns:xlink="http://www.w3.org/1999/xlink" xmlns="http://www.w3.org/2000/svg" version="1.1" id="svg1" width="16" height="16" viewBox="0 0 16 16" sodipodi:docname="layers-symbolic.svg"><sodipodi:namedview objecttolerance="10" gridtolerance="10" guidetolerance="10" id="namedview" showgrid="true" inkscape:zoom="0.6002936" inkscape:cx="732.67439" inkscape:cy="-567.94603" inkscape:window-width="1920" inkscape:window-height="1016" inkscape:window-x="0" inkscape:window-y="27" inkscape:window-maximized="1" inkscape:current-layer="layer1">
    <inkscape:grid type="xygrid" id="grid"/>
  </sodipodi:namedview>
  <g transform="translate(-105,-767.3622)" inkscape:label="00053" id="layers">
      <path inkscape:connector-curvature="0" id="rect40003" d="m 105,255 h 16 v 16 h -16 z" style="opacity:0;fill:none" transform="translate(0,512.3622)"/>
      <path style="opacity:1" d="m 109,769.3622 -3,3 h 11 l 3,-3 z" id="path40005" inkscape:connector-curvature="0"/>
      <path inkscape:connector-curvature="0" id="path40007" d="m 109,774.3622 -3,3 h 11 l 3,-3 z" style="opacity:1"/>
      <path style="opacity:1" d="m 109,779.3622 -3,3 h 11 l 3,-3 z" id="path40009" inkscape:connector-curvature="0"/>
    </g>
    </svg>
